\relax 
\providecommand\hyper@newdestlabel[2]{}
\@writefile{toc}{\contentsline {chapter}{\numberline {1}Giới thiệu}{1}{chapter.1}\protected@file@percent }
\@writefile{lof}{\addvspace {10\p@ }}
\@writefile{lot}{\addvspace {10\p@ }}
\@writefile{toc}{\contentsline {section}{\numberline {1.1}Lý do, mục đích chọn đề tài}{2}{section.1.1}\protected@file@percent }
\@writefile{lof}{\contentsline {figure}{\numberline {1.1}{\ignorespaces Lịch sử 4 cuộc cách mạng công nghệ của nhân loại.}}{2}{figure.1.1}\protected@file@percent }
\newlabel{lichsu}{{1.1}{2}{Lịch sử 4 cuộc cách mạng công nghệ của nhân loại}{figure.1.1}{}}
\@writefile{lof}{\contentsline {figure}{\numberline {1.2}{\ignorespaces Cờ tướng - nét văn hóa độc đáo của người Việt.}}{3}{figure.1.2}\protected@file@percent }
\newlabel{cotuong}{{1.2}{3}{Cờ tướng - nét văn hóa độc đáo của người Việt}{figure.1.2}{}}
\@writefile{lof}{\contentsline {figure}{\numberline {1.3}{\ignorespaces Trận đấu giữa AlphaGo với Lee Se-dol.}}{4}{figure.1.3}\protected@file@percent }
\newlabel{cotuong}{{1.3}{4}{Trận đấu giữa AlphaGo với Lee Se-dol}{figure.1.3}{}}
\@writefile{toc}{\contentsline {section}{\numberline {1.2}Phạm vi, đối tượng của đề tài}{4}{section.1.2}\protected@file@percent }
\@writefile{toc}{\contentsline {section}{\numberline {1.3}Mục tiêu của đề tài}{4}{section.1.3}\protected@file@percent }
\@writefile{toc}{\contentsline {section}{\numberline {1.4}Khó khăn và thách thức}{4}{section.1.4}\protected@file@percent }
\@writefile{toc}{\contentsline {section}{\numberline {1.5}Giới thiệu về cờ tướng}{4}{section.1.5}\protected@file@percent }
\@writefile{toc}{\contentsline {subsection}{\numberline {1.5.1}Lịch sử của cờ tướng}{4}{subsection.1.5.1}\protected@file@percent }
\@writefile{toc}{\contentsline {subsection}{\numberline {1.5.2}Luật chơi của cờ tướng}{5}{subsection.1.5.2}\protected@file@percent }
\@writefile{toc}{\contentsline {section}{\numberline {1.6}Ứng dụng của chương trình trò chơi cờ tướng}{5}{section.1.6}\protected@file@percent }
\@setckpt{./content/chapter1/chapter01}{
\setcounter{page}{6}
\setcounter{equation}{0}
\setcounter{enumi}{0}
\setcounter{enumii}{0}
\setcounter{enumiii}{0}
\setcounter{enumiv}{0}
\setcounter{footnote}{0}
\setcounter{mpfootnote}{0}
\setcounter{part}{0}
\setcounter{chapter}{1}
\setcounter{section}{6}
\setcounter{subsection}{0}
\setcounter{subsubsection}{0}
\setcounter{paragraph}{0}
\setcounter{subparagraph}{0}
\setcounter{figure}{3}
\setcounter{table}{0}
\setcounter{Item}{0}
\setcounter{Hfootnote}{0}
\setcounter{bookmark@seq@number}{9}
\setcounter{section@level}{1}
}
